<?xml version="1.0" encoding="UTF-8"?>
<svg width="71px" height="71px" viewBox="0 0 71 71" version="1.1" xmlns="http://www.w3.org/2000/svg" xmlns:xlink="http://www.w3.org/1999/xlink">
    <!-- Generator: Sketch 41.2 (35397) - http://www.bohemiancoding.com/sketch -->
    <title>Slice 1</title>
    <desc>Created with Sketch.</desc>
    <defs>
        <path d="M35,0 C54.33,0 70,15.67 70,35 C70,54.33 54.33,70 35,70 C15.67,70 0,54.33 0,35 C0,15.67 15.67,0 35,0 L35,0 Z" id="path-1"></path>
        <polygon id="path-3" points="18.677265 28.1550691 18.677265 0.229061122 0.0538306801 0.229061122 0.0538306801 28.1550691"></polygon>
        <polygon id="path-5" points="0 45.5567139 0 22.9255896 0 0.294465281 23.5842735 0.294465281 23.5842735 45.5567139"></polygon>
        <polygon id="path-7" points="0 45.5567139 0 22.9255896 0 0.294465281 23.5842735 0.294465281 23.5842735 45.5567139"></polygon>
        <polygon id="path-9" points="0 45.5567139 0 22.9255896 0 0.294465281 23.5842735 0.294465281 23.5842735 45.5567139"></polygon>
        <polygon id="path-11" points="0 45.5567139 0 22.9255896 0 0.294465281 23.5842735 0.294465281 23.5842735 45.5567139"></polygon>
    </defs>
    <g id="Page-1" stroke="none" stroke-width="1" fill="none" fill-rule="evenodd">
        <g id="Confort">
            <g id="Page-1">
                <g id="Confort-Copy">
                    <g id="Page-1">
                        <g id="Confort-Copy" transform="translate(0.062695, 0.203945)">
                            <g id="Shape-Clipped">
                                <g>
                                    <mask id="mask-2" fill="white">
                                        <use xlink:href="#path-1"></use>
                                    </mask>
                                    <g id="path-1"></g>
                                    <g id="Shape" mask="url(#mask-2)" fill="#FFFFFF">
                                        <path d="M35,0 C54.33,0 70,15.67 70,35 C70,54.33 54.33,70 35,70 C15.67,70 0,54.33 0,35 C0,15.67 15.67,0 35,0 L35,0 Z" id="path-2"></path>
                                    </g>
                                </g>
                            </g>
                            <g id="picto_confort" transform="translate(18.000000, 14.000000)">
                                <g id="Group-3" transform="translate(12.307692, 9.859289)">
                                    <g id="Fill-1-Clipped">
                                        <g>
                                            <mask id="mask-4" fill="white">
                                                <use xlink:href="#path-3"></use>
                                            </mask>
                                            <g id="path-3"></g>
                                            <path d="M12.862906,13.7322895 C13.8205128,13.8244228 14.777094,13.9617729 15.7241026,14.1361803 C16.5798291,14.2939289 17.1764103,14.8140914 17.342906,15.6817088 C17.7145299,17.6148094 18.0871795,19.5499498 18.3764103,21.4966494 C18.5494017,22.6637852 18.5894017,23.8523395 18.6461538,25.0330743 C18.7001709,26.1614529 18.8249573,27.3326684 17.5798291,28.1550691 L15.8803419,28.1550691 C15.0707692,27.7661372 14.8099145,27.1620007 14.7326496,26.3514992 C14.5620513,24.5581286 14.3022222,22.7722374 14.0577778,20.9860062 C14.0205128,20.7164057 13.8724786,20.461764 13.7094017,20.0218358 L8.81675214,20.0218358 C7.56376068,20.0214958 6.31008547,20.0374747 5.0574359,20.0163962 C3.44307692,19.9891981 2.19179487,19.2772895 1.4642735,17.8476926 C1.03316239,17.0001337 0.626324786,16.0842398 0.485470085,15.1574667 C0.024957265,12.1357646 -0.136410256,9.09808373 0.348717949,6.04816373 C0.48991453,5.16082774 0.410940171,4.23915422 0.437948718,3.33345955 C0.497777778,1.31026549 0.726153846,0.995788171 2.68444444,0.234243103 C2.72854701,0.234243103 2.78837607,0.221324035 2.84034188,0.236282956 C3.22153846,0.346095035 3.60068376,0.461686697 4.01196581,0.58475782 C5.45675214,2.14932496 6.12102564,4.00763092 6.08205128,6.14097704 C6.05435897,7.66950678 6.05504274,9.1983765 6.06290598,10.7272462 C6.06837607,11.7111352 6.24034188,12.6423281 6.99931624,13.2366052 C9.02324786,13.405233 10.9449573,13.5476828 12.862906,13.7322895 Z" id="Fill-1" fill="#808080" mask="url(#mask-4)"></path>
                                        </g>
                                    </g>
                                </g>
                                <path d="M23.7442735,39.0981998 C22.4324786,39.0410839 21.7757265,38.4270882 21.6393162,37.1341614 C21.5579487,36.364117 21.5076923,35.5906728 21.4311111,34.6686593 L16.8547009,34.6686593 C15.9439316,34.6686593 15.0304274,34.6214027 14.1230769,34.6778386 C11.5138462,34.8406869 10.0003419,33.508323 9.16649573,31.3365596 C8.60547009,29.875345 8.24820513,28.3185973 7.95897436,26.7751086 C7.16376068,22.5342546 7.18905983,18.2366245 7.23111111,13.9440942 C7.24581197,12.449562 7.02290598,11.0240448 6.26051282,9.71241942 C5.76991453,8.86826031 5.64854701,8.00268275 6.21128205,7.1507042 C6.83931624,6.19979279 7.76615385,6.12329831 8.74564103,6.3439424 C9.76273504,6.8651248 10.2105983,7.78203866 10.6064957,8.73023027 C11.2235897,10.2091236 11.4540171,11.7675712 11.4803419,13.3552567 C11.5210256,15.7888011 11.4687179,18.2250654 11.5719658,20.6552101 C11.6820513,23.2448033 11.9866667,25.8231773 12.6550427,28.3376359 C12.8393162,29.030166 13.1955556,29.6778193 13.4994872,30.4108064 L24.6037607,30.4108064 C25.4348718,32.6577043 25.9808547,34.8746844 25.8905983,37.2164355 C25.862906,37.9337837 25.4988034,38.4998429 24.7757265,39.0271449 C24.4208547,39.053663 24.0810256,39.1128187 23.7442735,39.0981998 Z" id="Fill-4" fill="#808080"></path>
                                <g id="Group-10">
                                    <g id="Fill-5-Clipped">
                                        <g>
                                            <mask id="mask-6" fill="white">
                                                <use xlink:href="#path-5"></use>
                                            </mask>
                                            <g id="path-5"></g>
                                            <path d="M18.7531624,6.01824589 C18.7473504,8.34809783 17.2605128,9.8375304 14.9278632,9.84976951 C12.7247863,9.86132868 11.0164103,8.19068919 11.0082051,6.01722596 C10.9996581,3.67649481 12.6037607,2.22139977 14.9962393,2.1183872 C16.8581197,2.03781301 19.0105983,3.72715115 18.7531624,6.01824589" id="Fill-5" fill="#808080" mask="url(#mask-6)"></path>
                                        </g>
                                    </g>
                                    <g id="Fill-7-Clipped">
                                        <g>
                                            <mask id="mask-8" fill="white">
                                                <use xlink:href="#path-7"></use>
                                            </mask>
                                            <g id="path-7"></g>
                                            <path d="M22.994188,45.5570539 C21.7039316,44.9682163 21.1176068,43.8507169 20.2529915,42.8046124 C21.0591453,41.7177108 21.9001709,40.7623797 23.2147009,40.1640229 C23.3753846,40.5430955 23.4584615,40.7389214 23.5842735,41.03538 C23.0064957,41.6446161 22.4338462,42.2477326 21.8488889,42.8637681 C22.4075214,43.488983 22.9319658,44.0757807 23.5206838,44.7349932 C23.3391453,45.0181927 23.1784615,45.2694346 22.994188,45.5570539" id="Fill-7" fill="#808080" mask="url(#mask-8)"></path>
                                        </g>
                                    </g>
                                    <g id="Fill-8-Clipped">
                                        <g>
                                            <mask id="mask-10" fill="white">
                                                <use xlink:href="#path-9"></use>
                                            </mask>
                                            <g id="path-9"></g>
                                            <path d="M1.71794872,7.89695037 C1.11931624,6.85050586 0.571623932,5.89347489 0,4.89462694 C0.199316239,4.62978604 0.351794872,4.42716066 0.514529915,4.21127623 C1.58632479,4.53969254 1.51794872,5.75816465 2.44923077,6.25588875 C3.14871795,5.93563185 3.92820513,5.5786576 4.8034188,5.17850646 C4.91897436,5.58069745 4.99076923,5.83057943 5.07452991,6.12295834 C4.09470085,6.8443863 3.16923077,7.54065607 1.71794872,7.89695037" id="Fill-8" fill="#808080" mask="url(#mask-10)"></path>
                                        </g>
                                    </g>
                                    <g id="Fill-9-Clipped">
                                        <g>
                                            <mask id="mask-12" fill="white">
                                                <use xlink:href="#path-11"></use>
                                            </mask>
                                            <g id="path-11"></g>
                                            <path d="M6.86871795,5.20876428 C5.61025641,3.90937801 7.05162393,3.14477316 7.0591453,2.09798867 C6.53709402,1.43775629 5.12273504,1.7301352 4.82974359,0.539201106 C5.91418803,0.0329776212 6.69367521,0.271640406 8.49367521,1.63630197 C8.25709402,2.84831454 7.8034188,3.99811161 6.86871795,5.20876428" id="Fill-9" fill="#808080" mask="url(#mask-12)"></path>
                                        </g>
                                    </g>
                                </g>
                                <path d="M28.9979487,43.6307528 C28.2088889,42.6499236 28.2088889,42.6499236 28.0071795,40.8776314 C27.6553846,40.8521332 27.2793162,40.7899177 26.9073504,40.8079364 C26.5158974,40.8266351 26.128547,40.9228481 25.6652991,40.9969628 C25.5008547,40.8483935 25.3015385,40.6682065 25.0878632,40.4747605 C25.1993162,40.2806345 25.2444444,40.0759692 25.3664957,40.009334 C26.4174359,39.4374953 27.5589744,39.5792651 28.7049573,39.5857246 C29.6957265,40.508758 29.1435897,41.7534082 29.4239316,42.8018926 C29.4724786,42.9834395 29.2041026,43.2489604 28.9979487,43.6307528" id="Fill-11" fill="#808080"></path>
                                <path d="M5.92239316,1.97491754 C5.97435897,2.27307604 6.00991453,2.47842123 6.03145299,2.60149235 C5.25333333,3.05773944 4.54837607,3.46672994 3.84752137,3.88285992 C3.18461538,4.27621155 3.53435897,5.48516434 2.50564103,5.62591419 C1.64923077,3.63229799 3.26632479,1.84912662 5.92239316,1.97491754" id="Fill-12" fill="#808080"></path>
                                <path d="M25.88,42.6495836 C26.2037607,42.1324809 26.5275214,41.6160581 26.8516239,41.0989554 C26.9955556,41.1577712 27.1391453,41.216587 27.2830769,41.2754027 C27.3808547,41.5929398 27.6239316,41.9499141 27.5511111,42.2222344 C27.1165812,43.8384778 24.1439316,44.5031299 22.9039316,43.2849978 C22.8451282,43.2272019 22.8782906,43.0779527 22.8625641,42.9059251 C23.6776068,42.2307338 24.7176068,43.0055379 25.88,42.6495836" id="Fill-13" fill="#808080"></path>
                            </g>
                        </g>
                    </g>
                </g>
            </g>
        </g>
    </g>
</svg>