<?xml version="1.0" encoding="UTF-8"?>
<svg width="70px" height="71px" viewBox="0 0 70 71" version="1.1" xmlns="http://www.w3.org/2000/svg" xmlns:xlink="http://www.w3.org/1999/xlink">
    <!-- Generator: Sketch 41.2 (35397) - http://www.bohemiancoding.com/sketch -->
    <title>Durée trop longue</title>
    <desc>Created with Sketch.</desc>
    <defs></defs>
    <g id="Page-1" stroke="none" stroke-width="1" fill="none" fill-rule="evenodd">
        <g id="Durée-trop-longue">
            <path d="M35,0 C54.33,0 70,15.6747735 70,35.010662 C70,54.3465504 54.33,70.021324 35,70.021324 C15.67,70.021324 0,54.3465504 0,35.010662 C0,15.6747735 15.67,0 35,0 L35,0 Z" id="Shape" fill="#FFFFFF"></path>
            <path d="M35.9730039,41.5910417 L35.9663823,41.5859375 L29.7460843,47.3485417 L28.8679486,47.293125 L34.8641284,36.7326042 L34.9201579,36.8288542 L35.9730039,41.5910417 Z M43.2655036,47.5279167 L42.4255698,47.5279167 L36.2124029,41.8119792 L37.3289189,37.0709375 L43.2655036,47.5279167 Z M24.565389,54 L47.4351203,54 C47.7458296,54 48,53.6361458 48,53.190625 L48,51.0760417 C48,50.63125 47.7458296,50.2673958 47.4351203,50.2673958 L24.565389,50.2673958 C24.2546797,50.2673958 24.0005094,50.63125 24.0005094,51.0760417 L24.0005094,53.190625 C24.0005094,53.6361458 24.2546797,54 24.565389,54 Z M28.5480708,25.4720833 L43.4514198,25.4720833 L40.9428244,29.8901042 C38.8045333,29.40375 33.4929326,29.2192708 31.6291863,30.8992708 L28.5480708,25.4720833 Z M26.2223354,23.8511458 L26.2223354,24.8347917 C26.2223354,25.1855208 26.423023,25.4720833 26.6675156,25.4720833 L27.2354514,25.4720833 L33.5897109,36.6640625 L27.4223863,47.5279167 L26.6675156,47.5279167 C26.423023,47.5279167 26.2223354,47.8144792 26.2223354,48.1659375 L26.2223354,49.1488542 L45.7781739,49.1488542 L45.7781739,48.1659375 C45.7781739,47.8144792 45.5774863,47.5279167 45.3329938,47.5279167 L44.578123,47.5279167 L38.4107984,36.6640625 L44.7645486,25.4720833 L45.3329938,25.4720833 C45.5774863,25.4720833 45.7781739,25.1855208 45.7781739,24.8347917 L45.7781739,23.8511458 L26.2223354,23.8511458 Z M47.4351203,19 L24.565389,19 C24.2546797,19 24,19.3645833 24,19.809375 L24,21.9239583 C24,22.36875 24.2546797,22.7326042 24.565389,22.7326042 L47.4351203,22.7326042 C47.7458296,22.7326042 48,22.36875 48,21.9239583 L48,19.809375 C48,19.3645833 47.7458296,19 47.4351203,19 L47.4351203,19 Z" id="Fill-12" fill="#838383"></path>
        </g>
    </g>
</svg>