<?xml version="1.0" encoding="UTF-8"?>
<svg width="72px" height="94px" viewBox="0 0 72 94" version="1.1" xmlns="http://www.w3.org/2000/svg" xmlns:xlink="http://www.w3.org/1999/xlink">
    <!-- Generator: Sketch 41.2 (35397) - http://www.bohemiancoding.com/sketch -->
    <title>Slice 1</title>
    <desc>Created with Sketch.</desc>
    <defs>
        <path d="M70,35 C70,54.33 54.33,70 35,70 C15.67,70 0,54.33 0,35 C0,15.67 15.67,0 35,0 C54.33,0 70,15.67 70,35 Z" id="path-1"></path>
        <polygon id="path-3" points="0 40.605327 33.7198148 40.605327 33.7198148 0.0339951575 0 0.0339951575"></polygon>
    </defs>
    <g id="Page-1" stroke="none" stroke-width="1" fill="none" fill-rule="evenodd">
        <g id="Insécurité-Copy">
            <g id="Page-1">
                <g id="Insécurité-Copy" transform="translate(0.803649, 0.887035)">
                    <g id="Shape-Clipped" transform="translate(1.000000, 0.000000)">
                        <g>
                            <mask id="mask-2" fill="white">
                                <use xlink:href="#path-1"></use>
                            </mask>
                            <g id="path-1"></g>
                            <g id="Shape" mask="url(#mask-2)" fill="#FFFFFF">
                                <path d="M70,35 C70,54.33 54.33,70 35,70 C15.67,70 0,54.33 0,35 C0,15.67 15.67,0 35,0 C54.33,0 70,15.67 70,35 Z" id="path-2"></path>
                            </g>
                        </g>
                    </g>
                    <g id="Insécurité" transform="translate(0.000000, 74.000000)" font-size="15" font-family="Roboto-Regular, Roboto" fill="#000000" font-weight="normal">
                        <g id="Group">
                            <text id="Insécurité">
                                <tspan x="0.0224913495" y="14.7243675">Insécurité</tspan>
                            </text>
                        </g>
                    </g>
                    <g id="Sécurité" transform="translate(19.000000, 16.000000)">
                        <g id="Group-3">
                            <g id="Fill-1-Clipped">
                                <g>
                                    <mask id="mask-4" fill="white">
                                        <use xlink:href="#path-3"></use>
                                    </mask>
                                    <g id="path-3"></g>
                                    <path d="M10.0148889,20.8132204 C10.9442222,21.7424214 11.8159444,22.6376272 12.7141111,23.5057628 C13.6387222,24.39908 14.4717222,25.3956417 15.3979074,26.1032446 C18.1685926,23.3326393 20.8530185,20.6485957 23.4801481,18.022155 C22.7655185,17.3073124 21.9964259,16.5383293 21.0245926,15.5663197 C19.1388519,17.4521066 17.2250926,19.3655933 15.2811111,21.3092979 C14.2573333,20.5270945 13.450463,19.2752543 12.3067407,18.5210654 C11.5354444,19.2922519 10.8378148,19.9900969 10.0148889,20.8132204 Z M33.7198148,6.29193706 L33.7198148,18.1452301 C33.1981667,20.3095884 33.456,22.6240921 32.4605556,24.6977967 C31.7330185,28.464649 30.399463,30.2821308 28.9617037,32.5154238 C28.3245185,33.5050606 27.3073519,34.2535836 26.4497963,35.0981115 C23.8292778,37.6779662 20.6339074,39.290218 17.2263519,40.5360776 C17.0418704,40.6034384 16.7950556,40.6349154 16.6190741,40.569758 C14.7985,39.8955207 12.9961852,39.1674577 11.327037,38.1677483 C9.26468519,36.9322761 7.45072222,35.3921066 5.80959259,33.6284504 C4.74457407,32.483632 3.91535185,31.2015739 3.17994444,29.8386199 C2.48640741,28.5534141 1.83096296,27.254988 1.48812963,25.8230993 C1.21392593,24.6789105 0.910759259,23.541017 0.668981481,22.3905327 C-0.438851852,17.1175061 0.203055556,11.7723971 0.0384074074,6.460339 C0.0371481481,6.42099275 0.0931851852,6.37975789 0.173148148,6.27021793 C0.37462963,6.27021793 0.628055556,6.28469735 0.879592593,6.26769977 C2.35638889,6.16791769 3.83853704,6.11031479 5.30651852,5.93372883 C6.02051852,5.84811139 6.70051852,5.50910413 7.40790741,5.33125909 C8.92153704,4.95070219 10.4143889,4.47823246 11.7721852,3.72782083 C13.0292407,3.03312349 14.2771667,2.28806296 15.3122778,1.24428572 C15.7693889,0.783462472 16.3351111,0.429975788 16.8432222,0.0339951575 C18.2057407,0.762687653 19.1552222,2.04191284 20.5120741,2.83041163 C22.035463,3.71585957 23.582463,4.51411623 25.273963,5.00578694 C26.8426852,5.46188863 28.4271481,5.79837774 30.059463,6.02721551 C31.2343519,6.19215498 32.3906667,6.19341406 33.7198148,6.29193706 L33.7198148,6.29193706 Z" id="Fill-1" fill="#808080" mask="url(#mask-4)"></path>
                                </g>
                            </g>
                        </g>
                        <path d="M10.0148889,20.8132204 C10.8378148,19.9900969 11.5354444,19.2922519 12.3067407,18.5210654 C13.450463,19.2752543 14.2573333,20.5270945 15.2811111,21.3092979 C17.2250926,19.3655933 19.1388519,17.4521066 21.0245926,15.5663197 C21.9964259,16.5383293 22.7655185,17.3073124 23.4801481,18.022155 C20.8530185,20.6485957 18.1685926,23.3326393 15.3979074,26.1032446 C14.4717222,25.3956417 13.6387222,24.39908 12.7141111,23.5057628 C11.8159444,22.6376272 10.9442222,21.7424214 10.0148889,20.8132204" id="Fill-4" fill="#FFFFFF"></path>
                    </g>
                </g>
            </g>
        </g>
    </g>
</svg>