<?xml version="1.0" encoding="UTF-8"?>
<svg width="77px" height="99px" viewBox="0 0 77 99" version="1.1" xmlns="http://www.w3.org/2000/svg" xmlns:xlink="http://www.w3.org/1999/xlink">
    <!-- Generator: Sketch 41.2 (35397) - http://www.bohemiancoding.com/sketch -->
    <title>Confort</title>
    <desc>Created with Sketch.</desc>
    <defs>
        <polygon id="path-1" points="21.0119231 31.8519231 21.0119231 0.259137607 0.0605595151 0.259137607 0.0605595151 31.8519231 21.0119231 31.8519231"></polygon>
        <polygon id="path-3" points="0 51.5384615 0 25.9357955 0 0.333129549 26.5323077 0.333129549 26.5323077 51.5384615"></polygon>
    </defs>
    <g id="Page-1" stroke="none" stroke-width="1" fill="none" fill-rule="evenodd">
        <g id="Diag" transform="translate(-659.000000, -526.000000)">
            <g id="Diag-Conducteur" transform="translate(605.000000, 361.000000)">
                <g id="Confort" transform="translate(57.000000, 168.000000)">
                    <path d="M35.15625,0 C54.5725446,0 70.3125,15.7447502 70.3125,35.1669596 C70.3125,54.589169 54.5725446,70.3339192 35.15625,70.3339192 C15.7399554,70.3339192 0,54.589169 0,35.1669596 C0,15.7447502 15.7399554,0 35.15625,0 L35.15625,0 Z" id="Shape" stroke="#F6A623" stroke-width="6" fill="#FFFFFF"></path>
                    <text font-family="Roboto-Medium, Roboto" font-size="18" font-weight="400" line-spacing="19" letter-spacing="0.899999976" fill="#000000">
                        <tspan x="2" y="96">Confort</tspan>
                    </text>
                    <g id="picto_confort" opacity="0.498584692" transform="translate(16.000000, 9.000000)">
                        <g id="Group-3" transform="translate(13.846154, 11.153846)">
                            <mask id="mask-2" fill="white">
                                <use xlink:href="#path-1"></use>
                            </mask>
                            <g id="Clip-2"></g>
                            <path d="M7.87423077,14.9746154 C10.1511538,15.1653846 12.3130769,15.3265385 14.4707692,15.5353846 C15.5480769,15.6396154 16.6242308,15.795 17.6896154,15.9923077 C18.6523077,16.1707692 19.3234615,16.7592308 19.5107692,17.7407692 C19.9288462,19.9276923 20.3480769,22.1169231 20.6734615,24.3192308 C20.8680769,25.6396154 20.9130769,26.9842308 20.9769231,28.32 C21.0376923,29.5965385 21.1780769,30.9215385 19.7773077,31.8519231 L17.8653846,31.8519231 C16.9546154,31.4119231 16.6611538,30.7284615 16.5742308,29.8115385 C16.3823077,27.7826923 16.09,25.7623077 15.815,23.7415385 C15.7730769,23.4365385 15.6065385,23.1484615 15.4230769,22.6507692 L9.91884615,22.6507692 C8.50923077,22.6503846 7.09884615,22.6684615 5.68961538,22.6446154 C3.87346154,22.6138462 2.46576923,21.8084615 1.64730769,20.1911538 C1.16230769,19.2323077 0.704615385,18.1961538 0.546153846,17.1476923 C0.0280769231,13.7292308 -0.153461538,10.2926923 0.392307692,6.84230769 C0.551153846,5.83846154 0.462307692,4.79576923 0.492692308,3.77115385 C0.56,1.48230769 0.816923077,1.12653846 3.02,0.265 C3.06961538,0.265 3.13692308,0.250384615 3.19538462,0.267307692 C3.62423077,0.391538462 4.05076923,0.522307692 4.51346154,0.661538462 C6.13884615,2.43153846 6.88615385,4.53384615 6.84230769,6.94730769 C6.81115385,8.67653846 6.81192308,10.4061538 6.82076923,12.1357692 C6.82692308,13.2488462 7.02038462,14.3023077 7.87423077,14.9746154" id="Fill-1" fill="#F5A623" mask="url(#mask-2)"></path>
                        </g>
                        <path d="M27.8726923,44.1515385 C27.4734615,44.1815385 27.0911538,44.2484615 26.7123077,44.2319231 C25.2365385,44.1673077 24.4976923,43.4726923 24.3442308,42.01 C24.2526923,41.1388462 24.1961538,40.2638462 24.11,39.2207692 L18.9615385,39.2207692 C17.9369231,39.2207692 16.9092308,39.1673077 15.8884615,39.2311538 C12.9530769,39.4153846 11.2503846,37.9080769 10.3123077,35.4511538 C9.68115385,33.7980769 9.27923077,32.0369231 8.95384615,30.2907692 C8.05923077,25.4930769 8.08769231,20.6311538 8.135,15.775 C8.15153846,14.0842308 7.90076923,12.4715385 7.04307692,10.9876923 C6.49115385,10.0326923 6.35461538,9.05346154 6.98769231,8.08961538 C7.69423077,7.01384615 8.73692308,6.92730769 9.83884615,7.17692308 C10.9830769,7.76653846 11.4869231,8.80384615 11.9323077,9.87653846 C12.6265385,11.5496154 12.8857692,13.3126923 12.9153846,15.1088462 C12.9611538,17.8619231 12.9023077,20.6180769 13.0184615,23.3673077 C13.1423077,26.2969231 13.485,29.2138462 14.2369231,32.0584615 C14.4442308,32.8419231 14.845,33.5746154 15.1869231,34.4038462 L27.6792308,34.4038462 C28.6142308,36.9457692 29.2284615,39.4538462 29.1269231,42.1030769 C29.0957692,42.9146154 28.6861538,43.555 27.8726923,44.1515385" id="Fill-4" fill="#F5A623"></path>
                        <g id="Group-10">
                            <mask id="mask-4" fill="white">
                                <use xlink:href="#path-3"></use>
                            </mask>
                            <g id="Clip-6"></g>
                            <path d="M21.0973077,6.80846154 C21.0907692,9.44423077 19.4180769,11.1292308 16.7938462,11.1430769 C14.3153846,11.1561538 12.3934615,9.26615385 12.3842308,6.80730769 C12.3746154,4.15923077 14.1792308,2.51307692 16.8707692,2.39653846 C18.9653846,2.30538462 21.3869231,4.21653846 21.0973077,6.80846154" id="Fill-5" fill="#F5A623" mask="url(#mask-4)"></path>
                            <path d="M25.8684615,51.5388462 C24.4169231,50.8726923 23.7573077,49.6084615 22.7846154,48.425 C23.6915385,47.1953846 24.6376923,46.1146154 26.1165385,45.4376923 C26.2973077,45.8665385 26.3907692,46.0880769 26.5323077,46.4234615 C25.8823077,47.1126923 25.2380769,47.795 24.58,48.4919231 C25.2084615,49.1992308 25.7984615,49.8630769 26.4607692,50.6088462 C26.2565385,50.9292308 26.0757692,51.2134615 25.8684615,51.5388462" id="Fill-7" fill="#F5A623" mask="url(#mask-4)"></path>
                            <path d="M1.93269231,8.93384615 C1.25923077,7.75 0.643076923,6.66730769 0,5.53730769 C0.224230769,5.23769231 0.395769231,5.00846154 0.578846154,4.76423077 C1.78461538,5.13576923 1.70769231,6.51423077 2.75538462,7.07730769 C3.54230769,6.715 4.41923077,6.31115385 5.40384615,5.85846154 C5.53384615,6.31346154 5.61461538,6.59615385 5.70884615,6.92692308 C4.60653846,7.74307692 3.56538462,8.53076923 1.93269231,8.93384615" id="Fill-8" fill="#F5A623" mask="url(#mask-4)"></path>
                            <path d="M7.72730769,5.89269231 C6.31153846,4.42269231 7.93307692,3.55769231 7.94153846,2.37346154 C7.35423077,1.62653846 5.76307692,1.95730769 5.43346154,0.61 C6.65346154,0.0373076923 7.53038462,0.307307692 9.55538462,1.85115385 C9.28923077,3.22230769 8.77884615,4.52307692 7.72730769,5.89269231" id="Fill-9" fill="#F5A623" mask="url(#mask-4)"></path>
                        </g>
                        <path d="M32.6226923,49.3596154 C31.735,48.25 31.735,48.25 31.5080769,46.245 C31.1123077,46.2161538 30.6892308,46.1457692 30.2707692,46.1661538 C29.8303846,46.1873077 29.3946154,46.2961538 28.8734615,46.38 C28.6884615,46.2119231 28.4642308,46.0080769 28.2238462,45.7892308 C28.3492308,45.5696154 28.4,45.3380769 28.5373077,45.2626923 C29.7196154,44.6157692 31.0038462,44.7761538 32.2930769,44.7834615 C33.4076923,45.8276923 32.7865385,47.2357692 33.1019231,48.4219231 C33.1565385,48.6273077 32.8546154,48.9276923 32.6226923,49.3596154" id="Fill-11" fill="#F5A623"></path>
                        <path d="M6.66269231,2.23423077 C6.72115385,2.57153846 6.76115385,2.80384615 6.78538462,2.94307692 C5.91,3.45923077 5.11692308,3.92192308 4.32846154,4.39269231 C3.58269231,4.83769231 3.97615385,6.20538462 2.81884615,6.36461538 C1.85538462,4.10923077 3.67461538,2.09192308 6.66269231,2.23423077" id="Fill-12" fill="#F5A623"></path>
                        <path d="M29.115,48.2496154 C29.4792308,47.6646154 29.8434615,47.0803846 30.2080769,46.4953846 C30.37,46.5619231 30.5315385,46.6284615 30.6934615,46.695 C30.8034615,47.0542308 31.0769231,47.4580769 30.995,47.7661538 C30.5061538,49.5946154 27.1619231,50.3465385 25.7669231,48.9684615 C25.7007692,48.9030769 25.7380769,48.7342308 25.7203846,48.5396154 C26.6373077,47.7757692 27.8073077,48.6523077 29.115,48.2496154" id="Fill-13" fill="#F5A623"></path>
                    </g>
                </g>
            </g>
        </g>
    </g>
</svg>