<?xml version="1.0" encoding="UTF-8"?>
<svg width="70px" height="70px" viewBox="0 0 70 70" version="1.1" xmlns="http://www.w3.org/2000/svg" xmlns:xlink="http://www.w3.org/1999/xlink">
    <!-- Generator: Sketch 41.2 (35397) - http://www.bohemiancoding.com/sketch -->
    <title>Slice 1</title>
    <desc>Created with Sketch.</desc>
    <defs>
        <rect id="path-1" x="12" y="21" width="46.376629" height="27.4707521" rx="4"></rect>
        <mask id="mask-2" maskContentUnits="userSpaceOnUse" maskUnits="objectBoundingBox" x="0" y="0" width="46.376629" height="27.4707521" fill="white">
            <use xlink:href="#path-1"></use>
        </mask>
    </defs>
    <g id="Page-1" stroke="none" stroke-width="1" fill="none" fill-rule="evenodd">
        <g id="Permis-de-conduire">
            <path d="M70,35 C70,54.33 54.33,70 35,70 C15.67,70 0,54.33 0,35 C0,15.67 15.67,0 35,0 C54.33,0 70,15.67 70,35 Z" id="Shape" fill="#FFFFFF"></path>
            <use id="Rectangle-4" stroke="#838383" mask="url(#mask-2)" stroke-width="2" xlink:href="#path-1"></use>
            <rect id="Rectangle-5" fill="#838383" x="16.1738966" y="25.1206128" width="12.5216898" height="13.2775302"></rect>
            <rect id="Rectangle-6" fill="#838383" x="32.869483" y="27.867688" width="20.4057168" height="0.915691738" rx="0.457845869"></rect>
            <rect id="Rectangle-6" fill="#838383" x="32.869483" y="32.4461467" width="20.4057168" height="0.915691738" rx="0.457845869"></rect>
            <rect id="Rectangle-6" fill="#838383" x="32.869483" y="37.0246054" width="20.4057168" height="0.915691738" rx="0.457845869"></rect>
            <rect id="Rectangle-6" fill="#838383" x="32.869483" y="41.6030641" width="20.4057168" height="0.915691738" rx="0.457845869"></rect>
            <rect id="Rectangle-6" fill="#838383" x="16.1738966" y="41.6030641" width="12.5216898" height="0.915691738" rx="0.457845869"></rect>
            <path d="M15.5,53.5 L55.5,18.5" id="Line" stroke="#7F7F7F" stroke-width="3" stroke-linecap="square"></path>
        </g>
    </g>
</svg>